<?xml version="1.0" standalone="no"?>
<!DOCTYPE svg PUBLIC "-//W3C//DTD SVG 20010904//EN"
 "http://www.w3.org/TR/2001/REC-SVG-20010904/DTD/svg10.dtd">
<svg version="1.0" xmlns="http://www.w3.org/2000/svg"
 width="512.000000pt" height="512.000000pt" viewBox="0 0 512.000000 512.000000"
 preserveAspectRatio="xMidYMid meet">
<metadata>
Created by potrace 1.14, written by Peter Selinger 2001-2017
</metadata>
<g transform="translate(0.000000,512.000000) scale(0.100000,-0.100000)"
fill="#000000" stroke="none">
<path d="M2447 4555 c-1 -2 -40 -5 -86 -9 -46 -3 -86 -8 -90 -10 -3 -2 -28 -7
-54 -10 -60 -8 -257 -59 -318 -81 -51 -19 -66 -26 -134 -56 -27 -12 -52 -23
-55 -23 -30 -7 -199 -104 -296 -171 -113 -77 -332 -281 -400 -371 -16 -22 -32
-41 -35 -44 -4 -3 -32 -43 -63 -90 -31 -47 -63 -94 -71 -105 -8 -10 -15 -25
-15 -32 0 -7 -5 -13 -12 -13 -6 0 -9 -3 -5 -6 3 -3 -4 -23 -16 -43 -22 -36
-44 -81 -71 -143 -8 -18 -19 -44 -25 -58 -36 -83 -90 -285 -116 -435 -31 -179
-22 -489 20 -700 21 -105 79 -289 121 -385 34 -76 107 -216 120 -231 8 -8 14
-19 14 -22 0 -4 21 -37 47 -75 123 -179 290 -355 448 -472 33 -25 62 -48 63
-52 2 -5 9 -8 15 -8 7 0 25 -11 40 -25 15 -14 27 -23 27 -19 0 3 6 2 13 -4 44
-36 241 -132 361 -177 347 -128 792 -155 1140 -69 95 24 198 55 231 69 17 7
58 24 93 37 34 12 62 26 62 30 0 5 6 8 14 8 22 0 142 67 256 143 58 38 107 73
110 76 3 3 22 19 43 34 85 64 266 256 346 367 22 30 47 63 55 73 9 9 14 17 11
17 -5 0 36 65 55 87 6 7 8 13 5 13 -3 0 5 17 18 38 21 33 35 62 83 167 37 82
90 248 109 340 39 187 49 279 48 455 0 139 -6 211 -24 315 -6 33 -13 71 -15
85 -24 133 -147 476 -176 488 -4 2 -8 10 -8 18 0 8 -19 45 -42 82 -22 37 -46
77 -52 89 -6 13 -14 23 -18 23 -5 0 -8 7 -8 15 0 8 -4 15 -8 15 -4 0 -16 15
-27 33 -10 17 -21 34 -24 37 -4 3 -26 30 -51 60 -66 81 -204 217 -290 285 -41
33 -76 63 -78 68 -2 4 -7 7 -11 7 -5 0 -41 22 -82 48 -41 27 -87 56 -104 65
-52 27 -120 61 -125 62 -3 1 -25 11 -50 22 -216 101 -499 163 -768 167 -78 1
-143 2 -145 1z"/>
</g>
</svg>
